jolka number 0
solution number 1
0.01564311981201172; <- first_found_time
11; <- nodes_visited_until_first_solution
0; <- recurrence_number_until_first_solution
0.01564311981201172; <- method_time
17; <- all_nodes_visited
6; <- all_recurrence
1; <- number_of_results
b;o;a;t;
a;r;t;#;
n;e;e;d;

