sudoku number 9
solution number 1
78.82417917251587; <- first_found_time
88365; <- nodes_visited_until_first_solution
334210; <- recurrence_number_until_first_solution
84.46705293655396; <- method_time
1331680; <- all_nodes_visited
356207; <- all_recurrence
1; <- number_of_results
9;7;4;5;8;1;3;2;6;
6;8;5;2;3;9;7;1;4;
3;1;2;4;6;7;5;8;9;
1;6;7;8;4;5;9;3;2;
5;9;3;7;2;6;8;4;1;
2;4;8;9;1;3;6;5;7;
7;3;9;1;5;4;2;6;8;
4;2;6;3;9;8;1;7;5;
8;5;1;6;7;2;4;9;3;

