sudoku number 16
solution number 1
5.7895119190216064; <- first_found_time
21899; <- nodes_visited_until_first_solution
28064; <- recurrence_number_until_first_solution
7.235679626464844; <- method_time
106411; <- all_nodes_visited
34851; <- all_recurrence
1; <- number_of_results
6;7;3;1;5;2;9;8;4;
2;4;5;9;7;8;6;1;3;
9;1;8;6;3;4;7;2;5;
5;3;1;2;9;7;8;4;6;
7;9;4;8;6;3;1;5;2;
8;6;2;5;4;1;3;7;9;
1;5;6;7;2;9;4;3;8;
3;2;7;4;8;6;5;9;1;
4;8;9;3;1;5;2;6;7;

