sudoku number 11
solution number 1
4.906862258911133; <- first_found_time
110299; <- nodes_visited_until_first_solution
20594; <- recurrence_number_until_first_solution
11.782471418380737; <- method_time
185020; <- all_nodes_visited
51437; <- all_recurrence
1; <- number_of_results
2;4;9;6;3;8;1;5;7;
7;3;6;5;2;1;8;4;9;
1;5;8;4;9;7;3;6;2;
8;7;4;9;6;2;5;1;3;
6;2;5;7;1;3;9;8;4;
3;9;1;8;5;4;7;2;6;
9;6;3;1;4;5;2;7;8;
5;8;2;3;7;6;4;9;1;
4;1;7;2;8;9;6;3;5;

