sudoku number 1
solution number 1
8.62895393371582; <- first_found_time
985366; <- nodes_visited_until_first_solution
35095; <- recurrence_number_until_first_solution
69.4691710472107; <- method_time
1122415; <- all_nodes_visited
287815; <- all_recurrence
1; <- number_of_results
1;2;7;8;4;9;3;6;5;
5;3;4;2;1;6;7;9;8;
8;9;6;3;5;7;4;1;2;
7;6;3;5;9;1;8;2;4;
4;8;2;6;7;3;1;5;9;
9;1;5;4;8;2;6;7;3;
6;5;9;7;3;8;2;4;1;
3;7;1;9;2;4;5;8;6;
2;4;8;1;6;5;9;3;7;

