sudoku number 13
solution number 1
8.017545461654663; <- first_found_time
84217; <- nodes_visited_until_first_solution
40997; <- recurrence_number_until_first_solution
13.773117542266846; <- method_time
205738; <- all_nodes_visited
71280; <- all_recurrence
1; <- number_of_results
7;2;5;4;6;8;1;9;3;
9;3;8;7;2;1;6;4;5;
6;4;1;5;9;3;2;7;8;
5;6;2;3;7;9;8;1;4;
1;7;4;2;8;6;3;5;9;
8;9;3;1;4;5;7;6;2;
3;8;7;9;1;4;5;2;6;
2;5;9;6;3;7;4;8;1;
4;1;6;8;5;2;9;3;7;

