sudoku number 31
solution number 1
16.669410228729248; <- first_found_time
604514; <- nodes_visited_until_first_solution
75428; <- recurrence_number_until_first_solution
56.04611420631409; <- method_time
856243; <- all_nodes_visited
259538; <- all_recurrence
1; <- number_of_results
2;1;9;4;8;5;7;3;6;
3;6;4;1;2;7;8;5;9;
8;7;5;6;3;9;4;2;1;
9;8;7;2;1;4;5;6;3;
6;4;1;5;7;3;9;8;2;
5;3;2;8;9;6;1;7;4;
4;5;3;9;6;8;2;1;7;
7;2;8;3;4;1;6;9;5;
1;9;6;7;5;2;3;4;8;

