sudoku number 7
solution number 1
8.318747282028198; <- first_found_time
65670; <- nodes_visited_until_first_solution
45165; <- recurrence_number_until_first_solution
12.669111013412476; <- method_time
192956; <- all_nodes_visited
68989; <- all_recurrence
1; <- number_of_results
6;4;8;2;9;7;1;3;5;
9;7;3;4;1;5;2;8;6;
2;1;5;8;6;3;4;7;9;
3;2;6;7;5;4;9;1;8;
1;9;4;6;2;8;7;5;3;
8;5;7;1;3;9;6;4;2;
5;6;9;3;7;1;8;2;4;
7;8;2;5;4;6;3;9;1;
4;3;1;9;8;2;5;6;7;

