sudoku number 12
solution number 1
0.21047019958496094; <- first_found_time
73940; <- nodes_visited_until_first_solution
946; <- recurrence_number_until_first_solution
5.151258707046509; <- method_time
77294; <- all_nodes_visited
24933; <- all_recurrence
1; <- number_of_results
3;6;8;9;2;7;4;1;5;
5;4;2;1;3;8;9;6;7;
9;1;7;5;4;6;8;2;3;
4;2;1;3;6;5;7;9;8;
7;3;5;8;1;9;6;4;2;
8;9;6;2;7;4;3;5;1;
6;8;4;7;5;2;1;3;9;
2;7;3;4;9;1;5;8;6;
1;5;9;6;8;3;2;7;4;

