sudoku number 41
solution number 1
1.718404769897461; <- first_found_time
432513; <- nodes_visited_until_first_solution
7908; <- recurrence_number_until_first_solution
29.61877202987671; <- method_time
457789; <- all_nodes_visited
139811; <- all_recurrence
40; <- number_of_results
8;7;5;1;3;2;4;6;9;
4;6;2;9;7;5;8;1;3;
9;1;3;6;4;8;5;2;7;
6;3;1;2;9;4;7;8;5;
5;4;8;3;6;7;2;9;1;
7;2;9;8;5;1;3;4;6;
1;5;6;4;2;3;9;7;8;
3;8;4;7;1;9;6;5;2;
2;9;7;5;8;6;1;3;4;

solution number 2
1.718404769897461; <- first_found_time
432513; <- nodes_visited_until_first_solution
7908; <- recurrence_number_until_first_solution
29.61877202987671; <- method_time
457789; <- all_nodes_visited
139811; <- all_recurrence
40; <- number_of_results
8;7;5;1;3;2;4;6;9;
4;6;2;9;7;5;8;1;3;
9;1;3;6;4;8;5;2;7;
6;3;1;2;9;4;7;8;5;
5;4;8;3;6;7;2;9;1;
7;2;9;8;5;1;6;3;4;
1;5;6;4;2;3;9;7;8;
2;8;4;7;1;9;3;5;6;
3;9;7;5;8;6;1;4;2;

solution number 3
1.718404769897461; <- first_found_time
432513; <- nodes_visited_until_first_solution
7908; <- recurrence_number_until_first_solution
29.61877202987671; <- method_time
457789; <- all_nodes_visited
139811; <- all_recurrence
40; <- number_of_results
8;7;5;1;3;2;4;6;9;
4;6;2;9;7;5;8;1;3;
9;1;3;6;4;8;5;2;7;
6;3;1;2;9;4;7;8;5;
5;4;9;8;6;7;2;3;1;
7;2;8;3;5;1;6;9;4;
1;5;6;4;2;3;9;7;8;
2;8;4;7;1;9;3;5;6;
3;9;7;5;8;6;1;4;2;

solution number 4
1.718404769897461; <- first_found_time
432513; <- nodes_visited_until_first_solution
7908; <- recurrence_number_until_first_solution
29.61877202987671; <- method_time
457789; <- all_nodes_visited
139811; <- all_recurrence
40; <- number_of_results
8;7;5;1;3;2;4;6;9;
4;6;2;9;7;5;8;1;3;
9;1;3;6;4;8;5;7;2;
6;3;1;2;9;4;7;8;5;
5;4;8;7;6;3;2;9;1;
7;2;9;8;5;1;3;4;6;
1;5;6;4;2;7;9;3;8;
2;8;4;3;1;9;6;5;7;
3;9;7;5;8;6;1;2;4;

solution number 5
1.718404769897461; <- first_found_time
432513; <- nodes_visited_until_first_solution
7908; <- recurrence_number_until_first_solution
29.61877202987671; <- method_time
457789; <- all_nodes_visited
139811; <- all_recurrence
40; <- number_of_results
8;7;5;1;3;2;4;6;9;
4;6;2;9;7;5;8;3;1;
9;1;3;6;4;8;5;2;7;
6;3;1;2;9;4;7;8;5;
5;4;9;8;6;7;2;1;3;
7;2;8;3;5;1;6;9;4;
1;5;6;4;2;3;9;7;8;
2;8;4;7;1;9;3;5;6;
3;9;7;5;8;6;1;4;2;

solution number 6
1.718404769897461; <- first_found_time
432513; <- nodes_visited_until_first_solution
7908; <- recurrence_number_until_first_solution
29.61877202987671; <- method_time
457789; <- all_nodes_visited
139811; <- all_recurrence
40; <- number_of_results
8;7;5;1;3;2;4;6;9;
4;6;2;9;7;5;8;3;1;
9;1;3;6;4;8;5;2;7;
6;3;8;2;9;4;7;1;5;
5;4;1;8;6;7;2;9;3;
7;2;9;3;5;1;6;8;4;
1;5;6;4;2;3;9;7;8;
2;8;4;7;1;9;3;5;6;
3;9;7;5;8;6;1;4;2;

solution number 7
1.718404769897461; <- first_found_time
432513; <- nodes_visited_until_first_solution
7908; <- recurrence_number_until_first_solution
29.61877202987671; <- method_time
457789; <- all_nodes_visited
139811; <- all_recurrence
40; <- number_of_results
8;7;5;1;3;2;4;6;9;
4;6;2;9;7;5;8;3;1;
9;1;3;6;4;8;5;7;2;
6;3;8;2;9;4;7;1;5;
5;4;1;3;6;7;2;9;8;
7;2;9;8;5;1;3;4;6;
1;5;6;4;2;3;9;8;7;
2;8;4;7;1;9;6;5;3;
3;9;7;5;8;6;1;2;4;

solution number 8
1.718404769897461; <- first_found_time
432513; <- nodes_visited_until_first_solution
7908; <- recurrence_number_until_first_solution
29.61877202987671; <- method_time
457789; <- all_nodes_visited
139811; <- all_recurrence
40; <- number_of_results
8;7;5;1;3;2;4;6;9;
4;6;2;9;7;5;8;3;1;
9;1;3;6;4;8;5;7;2;
6;3;8;2;9;4;7;1;5;
5;4;1;3;6;7;2;9;8;
7;2;9;8;5;1;6;4;3;
1;5;6;4;2;3;9;8;7;
2;8;4;7;1;9;3;5;6;
3;9;7;5;8;6;1;2;4;

solution number 9
1.718404769897461; <- first_found_time
432513; <- nodes_visited_until_first_solution
7908; <- recurrence_number_until_first_solution
29.61877202987671; <- method_time
457789; <- all_nodes_visited
139811; <- all_recurrence
40; <- number_of_results
8;7;5;1;3;2;4;6;9;
4;6;2;9;7;5;8;3;1;
9;1;3;6;4;8;5;7;2;
6;3;8;2;9;4;7;1;5;
5;4;1;7;6;3;2;9;8;
7;2;9;8;5;1;3;4;6;
1;5;6;4;2;7;9;8;3;
2;8;4;3;1;9;6;5;7;
3;9;7;5;8;6;1;2;4;

solution number 10
1.718404769897461; <- first_found_time
432513; <- nodes_visited_until_first_solution
7908; <- recurrence_number_until_first_solution
29.61877202987671; <- method_time
457789; <- all_nodes_visited
139811; <- all_recurrence
40; <- number_of_results
8;7;5;1;3;2;4;6;9;
4;6;2;9;7;5;8;3;1;
9;1;3;6;4;8;5;7;2;
6;3;8;2;9;4;7;1;5;
5;4;1;8;6;7;2;9;3;
7;2;9;3;5;1;6;4;8;
1;5;6;4;2;3;9;8;7;
2;8;4;7;1;9;3;5;6;
3;9;7;5;8;6;1;2;4;

solution number 11
1.718404769897461; <- first_found_time
432513; <- nodes_visited_until_first_solution
7908; <- recurrence_number_until_first_solution
29.61877202987671; <- method_time
457789; <- all_nodes_visited
139811; <- all_recurrence
40; <- number_of_results
8;7;5;1;3;2;4;6;9;
4;6;2;9;7;5;8;3;1;
9;1;3;6;4;8;5;7;2;
6;3;8;2;9;4;7;1;5;
7;4;1;8;5;3;2;9;6;
5;2;9;7;6;1;3;4;8;
1;5;6;4;2;7;9;8;3;
2;8;4;3;1;9;6;5;7;
3;9;7;5;8;6;1;2;4;

solution number 12
1.718404769897461; <- first_found_time
432513; <- nodes_visited_until_first_solution
7908; <- recurrence_number_until_first_solution
29.61877202987671; <- method_time
457789; <- all_nodes_visited
139811; <- all_recurrence
40; <- number_of_results
8;7;5;1;3;2;4;6;9;
6;4;2;9;7;5;8;1;3;
9;1;3;6;4;8;5;2;7;
3;6;1;2;9;4;7;8;5;
4;5;8;7;6;3;2;9;1;
7;2;9;8;5;1;3;4;6;
1;3;6;4;2;7;9;5;8;
5;8;4;3;1;9;6;7;2;
2;9;7;5;8;6;1;3;4;

solution number 13
1.718404769897461; <- first_found_time
432513; <- nodes_visited_until_first_solution
7908; <- recurrence_number_until_first_solution
29.61877202987671; <- method_time
457789; <- all_nodes_visited
139811; <- all_recurrence
40; <- number_of_results
8;7;5;1;3;2;4;6;9;
6;4;2;9;7;5;8;1;3;
9;1;3;6;4;8;5;2;7;
3;6;1;2;9;4;7;8;5;
7;5;9;8;6;3;2;4;1;
4;2;8;7;5;1;3;9;6;
1;3;6;4;2;7;9;5;8;
5;8;4;3;1;9;6;7;2;
2;9;7;5;8;6;1;3;4;

solution number 14
1.718404769897461; <- first_found_time
432513; <- nodes_visited_until_first_solution
7908; <- recurrence_number_until_first_solution
29.61877202987671; <- method_time
457789; <- all_nodes_visited
139811; <- all_recurrence
40; <- number_of_results
8;7;5;1;3;2;4;6;9;
6;4;2;9;7;5;8;1;3;
9;1;3;6;4;8;5;7;2;
3;6;1;2;9;4;7;8;5;
4;5;8;7;6;3;2;9;1;
7;2;9;8;5;1;3;4;6;
1;3;6;4;2;7;9;5;8;
5;8;4;3;1;9;6;2;7;
2;9;7;5;8;6;1;3;4;

solution number 15
1.718404769897461; <- first_found_time
432513; <- nodes_visited_until_first_solution
7908; <- recurrence_number_until_first_solution
29.61877202987671; <- method_time
457789; <- all_nodes_visited
139811; <- all_recurrence
40; <- number_of_results
8;7;5;1;3;2;4;6;9;
6;4;2;9;7;5;8;1;3;
9;1;3;6;4;8;5;7;2;
3;6;1;2;9;4;7;8;5;
7;5;9;8;6;3;2;4;1;
4;2;8;7;5;1;3;9;6;
1;3;6;4;2;7;9;5;8;
5;8;4;3;1;9;6;2;7;
2;9;7;5;8;6;1;3;4;

solution number 16
1.718404769897461; <- first_found_time
432513; <- nodes_visited_until_first_solution
7908; <- recurrence_number_until_first_solution
29.61877202987671; <- method_time
457789; <- all_nodes_visited
139811; <- all_recurrence
40; <- number_of_results
8;7;5;1;3;2;4;6;9;
6;4;2;9;7;5;8;3;1;
9;1;3;6;4;8;5;2;7;
3;6;1;2;9;4;7;8;5;
7;5;9;8;6;3;2;1;4;
4;2;8;7;5;1;3;9;6;
1;3;6;4;2;7;9;5;8;
5;8;4;3;1;9;6;7;2;
2;9;7;5;8;6;1;4;3;

solution number 17
1.718404769897461; <- first_found_time
432513; <- nodes_visited_until_first_solution
7908; <- recurrence_number_until_first_solution
29.61877202987671; <- method_time
457789; <- all_nodes_visited
139811; <- all_recurrence
40; <- number_of_results
8;7;5;1;3;2;4;6;9;
6;4;2;9;7;5;8;3;1;
9;1;3;6;4;8;5;2;7;
3;6;8;2;9;4;7;1;5;
7;5;1;8;6;3;2;9;4;
4;2;9;7;5;1;3;8;6;
1;3;6;4;2;7;9;5;8;
5;8;4;3;1;9;6;7;2;
2;9;7;5;8;6;1;4;3;

solution number 18
1.718404769897461; <- first_found_time
432513; <- nodes_visited_until_first_solution
7908; <- recurrence_number_until_first_solution
29.61877202987671; <- method_time
457789; <- all_nodes_visited
139811; <- all_recurrence
40; <- number_of_results
8;7;5;1;3;2;4;6;9;
6;4;2;9;7;5;8;3;1;
9;1;3;6;4;8;5;7;2;
3;6;1;2;9;4;7;8;5;
7;5;9;8;6;3;2;1;4;
4;2;8;7;5;1;3;9;6;
1;3;6;4;2;7;9;5;8;
5;8;4;3;1;9;6;2;7;
2;9;7;5;8;6;1;4;3;

solution number 19
1.718404769897461; <- first_found_time
432513; <- nodes_visited_until_first_solution
7908; <- recurrence_number_until_first_solution
29.61877202987671; <- method_time
457789; <- all_nodes_visited
139811; <- all_recurrence
40; <- number_of_results
8;7;5;1;3;2;4;6;9;
6;4;2;9;7;5;8;3;1;
9;1;3;6;4;8;5;7;2;
3;6;8;2;9;4;7;1;5;
7;5;1;8;6;3;2;9;4;
4;2;9;7;5;1;3;8;6;
1;3;6;4;2;7;9;5;8;
5;8;4;3;1;9;6;2;7;
2;9;7;5;8;6;1;4;3;

solution number 20
1.718404769897461; <- first_found_time
432513; <- nodes_visited_until_first_solution
7908; <- recurrence_number_until_first_solution
29.61877202987671; <- method_time
457789; <- all_nodes_visited
139811; <- all_recurrence
40; <- number_of_results
8;7;5;1;3;2;6;4;9;
4;6;2;9;7;5;8;3;1;
9;1;3;6;4;8;5;7;2;
6;3;8;2;9;4;7;1;5;
5;4;1;3;6;7;2;9;8;
7;2;9;8;5;1;4;6;3;
1;5;6;4;2;3;9;8;7;
2;8;4;7;1;9;3;5;6;
3;9;7;5;8;6;1;2;4;

solution number 21
1.718404769897461; <- first_found_time
432513; <- nodes_visited_until_first_solution
7908; <- recurrence_number_until_first_solution
29.61877202987671; <- method_time
457789; <- all_nodes_visited
139811; <- all_recurrence
40; <- number_of_results
8;7;5;1;3;2;6;4;9;
4;6;2;9;7;5;8;3;1;
9;1;3;6;4;8;5;7;2;
6;3;8;2;9;4;7;1;5;
5;4;1;8;6;7;2;9;3;
7;2;9;3;5;1;4;6;8;
1;5;6;4;2;3;9;8;7;
2;8;4;7;1;9;3;5;6;
3;9;7;5;8;6;1;2;4;

solution number 22
1.718404769897461; <- first_found_time
432513; <- nodes_visited_until_first_solution
7908; <- recurrence_number_until_first_solution
29.61877202987671; <- method_time
457789; <- all_nodes_visited
139811; <- all_recurrence
40; <- number_of_results
8;7;5;3;1;2;4;6;9;
4;6;2;9;7;5;8;1;3;
9;1;3;6;4;8;5;7;2;
6;3;1;2;9;4;7;8;5;
5;4;8;7;6;3;2;9;1;
7;2;9;8;5;1;3;4;6;
1;5;6;4;2;7;9;3;8;
2;8;4;1;3;9;6;5;7;
3;9;7;5;8;6;1;2;4;

solution number 23
1.718404769897461; <- first_found_time
432513; <- nodes_visited_until_first_solution
7908; <- recurrence_number_until_first_solution
29.61877202987671; <- method_time
457789; <- all_nodes_visited
139811; <- all_recurrence
40; <- number_of_results
8;7;5;3;1;2;4;6;9;
4;6;2;9;7;5;8;3;1;
9;1;3;6;4;8;5;7;2;
6;3;8;2;9;4;7;1;5;
5;4;1;7;6;3;2;9;8;
7;2;9;8;5;1;3;4;6;
1;5;6;4;2;7;9;8;3;
2;8;4;1;3;9;6;5;7;
3;9;7;5;8;6;1;2;4;

solution number 24
1.718404769897461; <- first_found_time
432513; <- nodes_visited_until_first_solution
7908; <- recurrence_number_until_first_solution
29.61877202987671; <- method_time
457789; <- all_nodes_visited
139811; <- all_recurrence
40; <- number_of_results
8;7;5;3;1;2;4;6;9;
4;6;2;9;7;5;8;3;1;
9;1;3;6;4;8;5;7;2;
6;3;8;2;9;4;7;1;5;
7;4;1;8;5;3;2;9;6;
5;2;9;7;6;1;3;4;8;
1;5;6;4;2;7;9;8;3;
2;8;4;1;3;9;6;5;7;
3;9;7;5;8;6;1;2;4;

solution number 25
1.718404769897461; <- first_found_time
432513; <- nodes_visited_until_first_solution
7908; <- recurrence_number_until_first_solution
29.61877202987671; <- method_time
457789; <- all_nodes_visited
139811; <- all_recurrence
40; <- number_of_results
8;7;5;3;1;2;4;6;9;
6;4;2;9;7;5;8;1;3;
9;1;3;6;4;8;5;2;7;
3;6;1;2;9;4;7;8;5;
4;5;8;7;3;6;2;9;1;
7;2;9;8;5;1;6;3;4;
1;3;6;4;2;7;9;5;8;
5;8;4;1;6;9;3;7;2;
2;9;7;5;8;3;1;4;6;

solution number 26
1.718404769897461; <- first_found_time
432513; <- nodes_visited_until_first_solution
7908; <- recurrence_number_until_first_solution
29.61877202987671; <- method_time
457789; <- all_nodes_visited
139811; <- all_recurrence
40; <- number_of_results
8;7;5;3;1;2;4;6;9;
6;4;2;9;7;5;8;1;3;
9;1;3;6;4;8;5;2;7;
3;6;1;2;9;4;7;8;5;
4;5;8;7;6;3;2;9;1;
7;2;9;8;5;1;3;4;6;
1;3;6;4;2;7;9;5;8;
5;8;4;1;3;9;6;7;2;
2;9;7;5;8;6;1;3;4;

solution number 27
1.718404769897461; <- first_found_time
432513; <- nodes_visited_until_first_solution
7908; <- recurrence_number_until_first_solution
29.61877202987671; <- method_time
457789; <- all_nodes_visited
139811; <- all_recurrence
40; <- number_of_results
8;7;5;3;1;2;4;6;9;
6;4;2;9;7;5;8;1;3;
9;1;3;6;4;8;5;2;7;
3;6;1;2;9;4;7;8;5;
7;5;9;8;6;3;2;4;1;
4;2;8;7;5;1;3;9;6;
1;3;6;4;2;7;9;5;8;
5;8;4;1;3;9;6;7;2;
2;9;7;5;8;6;1;3;4;

solution number 28
1.718404769897461; <- first_found_time
432513; <- nodes_visited_until_first_solution
7908; <- recurrence_number_until_first_solution
29.61877202987671; <- method_time
457789; <- all_nodes_visited
139811; <- all_recurrence
40; <- number_of_results
8;7;5;3;1;2;4;6;9;
6;4;2;9;7;5;8;1;3;
9;1;3;6;4;8;5;7;2;
3;6;1;2;9;4;7;8;5;
4;5;8;7;3;6;2;9;1;
7;2;9;8;5;1;6;3;4;
1;3;6;4;2;7;9;5;8;
5;8;4;1;6;9;3;2;7;
2;9;7;5;8;3;1;4;6;

solution number 29
1.718404769897461; <- first_found_time
432513; <- nodes_visited_until_first_solution
7908; <- recurrence_number_until_first_solution
29.61877202987671; <- method_time
457789; <- all_nodes_visited
139811; <- all_recurrence
40; <- number_of_results
8;7;5;3;1;2;4;6;9;
6;4;2;9;7;5;8;1;3;
9;1;3;6;4;8;5;7;2;
3;6;1;2;9;4;7;8;5;
4;5;8;7;6;3;2;9;1;
7;2;9;8;5;1;3;4;6;
1;3;6;4;2;7;9;5;8;
5;8;4;1;3;9;6;2;7;
2;9;7;5;8;6;1;3;4;

solution number 30
1.718404769897461; <- first_found_time
432513; <- nodes_visited_until_first_solution
7908; <- recurrence_number_until_first_solution
29.61877202987671; <- method_time
457789; <- all_nodes_visited
139811; <- all_recurrence
40; <- number_of_results
8;7;5;3;1;2;4;6;9;
6;4;2;9;7;5;8;1;3;
9;1;3;6;4;8;5;7;2;
3;6;1;2;9;4;7;8;5;
7;5;9;8;6;3;2;4;1;
4;2;8;7;5;1;3;9;6;
1;3;6;4;2;7;9;5;8;
5;8;4;1;3;9;6;2;7;
2;9;7;5;8;6;1;3;4;

solution number 31
1.718404769897461; <- first_found_time
432513; <- nodes_visited_until_first_solution
7908; <- recurrence_number_until_first_solution
29.61877202987671; <- method_time
457789; <- all_nodes_visited
139811; <- all_recurrence
40; <- number_of_results
8;7;5;3;1;2;4;6;9;
6;4;2;9;7;5;8;3;1;
9;1;3;6;4;8;5;2;7;
3;6;1;2;9;4;7;8;5;
7;5;9;8;3;6;2;1;4;
4;2;8;7;5;1;6;9;3;
1;3;6;4;2;7;9;5;8;
5;8;4;1;6;9;3;7;2;
2;9;7;5;8;3;1;4;6;

solution number 32
1.718404769897461; <- first_found_time
432513; <- nodes_visited_until_first_solution
7908; <- recurrence_number_until_first_solution
29.61877202987671; <- method_time
457789; <- all_nodes_visited
139811; <- all_recurrence
40; <- number_of_results
8;7;5;3;1;2;4;6;9;
6;4;2;9;7;5;8;3;1;
9;1;3;6;4;8;5;2;7;
3;6;1;2;9;4;7;8;5;
7;5;9;8;6;3;2;1;4;
4;2;8;7;5;1;3;9;6;
1;3;6;4;2;7;9;5;8;
5;8;4;1;3;9;6;7;2;
2;9;7;5;8;6;1;4;3;

solution number 33
1.718404769897461; <- first_found_time
432513; <- nodes_visited_until_first_solution
7908; <- recurrence_number_until_first_solution
29.61877202987671; <- method_time
457789; <- all_nodes_visited
139811; <- all_recurrence
40; <- number_of_results
8;7;5;3;1;2;4;6;9;
6;4;2;9;7;5;8;3;1;
9;1;3;6;4;8;5;2;7;
3;6;8;2;9;4;7;1;5;
7;5;1;8;3;6;2;9;4;
4;2;9;7;5;1;6;8;3;
1;3;6;4;2;7;9;5;8;
5;8;4;1;6;9;3;7;2;
2;9;7;5;8;3;1;4;6;

solution number 34
1.718404769897461; <- first_found_time
432513; <- nodes_visited_until_first_solution
7908; <- recurrence_number_until_first_solution
29.61877202987671; <- method_time
457789; <- all_nodes_visited
139811; <- all_recurrence
40; <- number_of_results
8;7;5;3;1;2;4;6;9;
6;4;2;9;7;5;8;3;1;
9;1;3;6;4;8;5;2;7;
3;6;8;2;9;4;7;1;5;
7;5;1;8;6;3;2;9;4;
4;2;9;7;5;1;3;8;6;
1;3;6;4;2;7;9;5;8;
5;8;4;1;3;9;6;7;2;
2;9;7;5;8;6;1;4;3;

solution number 35
1.718404769897461; <- first_found_time
432513; <- nodes_visited_until_first_solution
7908; <- recurrence_number_until_first_solution
29.61877202987671; <- method_time
457789; <- all_nodes_visited
139811; <- all_recurrence
40; <- number_of_results
8;7;5;3;1;2;4;6;9;
6;4;2;9;7;5;8;3;1;
9;1;3;6;4;8;5;7;2;
3;6;1;2;9;4;7;8;5;
7;5;9;8;3;6;2;1;4;
4;2;8;7;5;1;6;9;3;
1;3;6;4;2;7;9;5;8;
5;8;4;1;6;9;3;2;7;
2;9;7;5;8;3;1;4;6;

solution number 36
1.718404769897461; <- first_found_time
432513; <- nodes_visited_until_first_solution
7908; <- recurrence_number_until_first_solution
29.61877202987671; <- method_time
457789; <- all_nodes_visited
139811; <- all_recurrence
40; <- number_of_results
8;7;5;3;1;2;4;6;9;
6;4;2;9;7;5;8;3;1;
9;1;3;6;4;8;5;7;2;
3;6;1;2;9;4;7;8;5;
7;5;9;8;6;3;2;1;4;
4;2;8;7;5;1;3;9;6;
1;3;6;4;2;7;9;5;8;
5;8;4;1;3;9;6;2;7;
2;9;7;5;8;6;1;4;3;

solution number 37
1.718404769897461; <- first_found_time
432513; <- nodes_visited_until_first_solution
7908; <- recurrence_number_until_first_solution
29.61877202987671; <- method_time
457789; <- all_nodes_visited
139811; <- all_recurrence
40; <- number_of_results
8;7;5;3;1;2;4;6;9;
6;4;2;9;7;5;8;3;1;
9;1;3;6;4;8;5;7;2;
3;6;8;2;9;4;7;1;5;
7;5;1;8;3;6;2;9;4;
4;2;9;7;5;1;6;8;3;
1;3;6;4;2;7;9;5;8;
5;8;4;1;6;9;3;2;7;
2;9;7;5;8;3;1;4;6;

solution number 38
1.718404769897461; <- first_found_time
432513; <- nodes_visited_until_first_solution
7908; <- recurrence_number_until_first_solution
29.61877202987671; <- method_time
457789; <- all_nodes_visited
139811; <- all_recurrence
40; <- number_of_results
8;7;5;3;1;2;4;6;9;
6;4;2;9;7;5;8;3;1;
9;1;3;6;4;8;5;7;2;
3;6;8;2;9;4;7;1;5;
7;5;1;8;6;3;2;9;4;
4;2;9;7;5;1;3;8;6;
1;3;6;4;2;7;9;5;8;
5;8;4;1;3;9;6;2;7;
2;9;7;5;8;6;1;4;3;

solution number 39
1.718404769897461; <- first_found_time
432513; <- nodes_visited_until_first_solution
7908; <- recurrence_number_until_first_solution
29.61877202987671; <- method_time
457789; <- all_nodes_visited
139811; <- all_recurrence
40; <- number_of_results
8;7;5;3;1;2;6;4;9;
6;4;2;9;7;5;8;1;3;
9;1;3;6;4;8;5;2;7;
3;6;1;2;9;4;7;8;5;
4;5;8;7;3;6;2;9;1;
7;2;9;8;5;1;4;3;6;
1;3;6;4;2;7;9;5;8;
5;8;4;1;6;9;3;7;2;
2;9;7;5;8;3;1;6;4;

solution number 40
1.718404769897461; <- first_found_time
432513; <- nodes_visited_until_first_solution
7908; <- recurrence_number_until_first_solution
29.61877202987671; <- method_time
457789; <- all_nodes_visited
139811; <- all_recurrence
40; <- number_of_results
8;7;5;3;1;2;6;4;9;
6;4;2;9;7;5;8;1;3;
9;1;3;6;4;8;5;7;2;
3;6;1;2;9;4;7;8;5;
4;5;8;7;3;6;2;9;1;
7;2;9;8;5;1;4;3;6;
1;3;6;4;2;7;9;5;8;
5;8;4;1;6;9;3;2;7;
2;9;7;5;8;3;1;6;4;

