sudoku number 2
solution number 1
3.2542624473571777; <- first_found_time
79625; <- nodes_visited_until_first_solution
15648; <- recurrence_number_until_first_solution
8.348635196685791; <- method_time
127673; <- all_nodes_visited
38947; <- all_recurrence
1; <- number_of_results
3;9;8;1;5;6;4;2;7;
7;6;4;3;2;9;5;1;8;
1;2;5;8;4;7;6;9;3;
6;4;2;7;9;1;8;3;5;
9;1;3;5;8;4;7;6;2;
5;8;7;2;6;3;1;4;9;
8;3;9;6;1;5;2;7;4;
2;7;6;4;3;8;9;5;1;
4;5;1;9;7;2;3;8;6;

