sudoku number 34
solution number 1
12.140522956848145; <- first_found_time
132872; <- nodes_visited_until_first_solution
56199; <- recurrence_number_until_first_solution
20.931010246276855; <- method_time
320924; <- all_nodes_visited
96056; <- all_recurrence
1; <- number_of_results
5;3;2;8;1;9;7;6;4;
7;1;6;2;4;3;9;8;5;
9;4;8;6;7;5;2;3;1;
2;8;3;4;6;7;1;5;9;
4;5;1;9;8;2;3;7;6;
6;7;9;5;3;1;4;2;8;
8;9;5;7;2;4;6;1;3;
3;6;7;1;9;8;5;4;2;
1;2;4;3;5;6;8;9;7;

