sudoku number 28
solution number 1
7.054141044616699; <- first_found_time
70214; <- nodes_visited_until_first_solution
32978; <- recurrence_number_until_first_solution
11.67278504371643; <- method_time
175768; <- all_nodes_visited
55299; <- all_recurrence
1; <- number_of_results
1;4;2;5;6;9;3;7;8;
7;3;9;4;2;8;1;5;6;
8;6;5;7;3;1;9;2;4;
6;2;7;1;4;3;5;8;9;
3;8;4;2;9;5;7;6;1;
9;5;1;6;8;7;2;4;3;
2;9;3;8;5;6;4;1;7;
4;7;6;3;1;2;8;9;5;
5;1;8;9;7;4;6;3;2;

