sudoku number 4
solution number 1
20.538066864013672; <- first_found_time
4975270; <- nodes_visited_until_first_solution
62859; <- recurrence_number_until_first_solution
290.52688479423523; <- method_time
5382629; <- all_nodes_visited
834254; <- all_recurrence
1; <- number_of_results
1;4;8;5;9;3;2;7;6;
3;6;9;7;4;2;5;1;8;
2;5;7;1;8;6;9;4;3;
6;7;1;4;5;8;3;2;9;
8;9;5;2;3;7;1;6;4;
4;3;2;9;6;1;7;8;5;
9;1;6;3;7;4;8;5;2;
7;8;3;6;2;5;4;9;1;
5;2;4;8;1;9;6;3;7;

