sudoku number 21
solution number 1
1.7673094272613525; <- first_found_time
343292; <- nodes_visited_until_first_solution
6301; <- recurrence_number_until_first_solution
16.80609631538391; <- method_time
386543; <- all_nodes_visited
56955; <- all_recurrence
1; <- number_of_results
8;7;5;1;3;2;4;6;9;
4;6;2;9;7;5;8;3;1;
9;1;3;6;4;8;5;7;2;
6;3;8;2;9;4;7;1;5;
5;4;1;3;6;7;2;9;8;
7;2;9;8;5;1;3;4;6;
1;5;6;4;2;3;9;8;7;
2;8;4;7;1;9;6;5;3;
3;9;7;5;8;6;1;2;4;

