sudoku number 19
solution number 1
1.593703269958496; <- first_found_time
96542; <- nodes_visited_until_first_solution
5451; <- recurrence_number_until_first_solution
5.954041004180908; <- method_time
131299; <- all_nodes_visited
20520; <- all_recurrence
1; <- number_of_results
1;5;3;8;4;9;2;7;6;
2;7;8;6;1;3;4;5;9;
9;4;6;5;2;7;1;3;8;
3;1;4;2;9;6;5;8;7;
7;6;9;1;8;5;3;4;2;
8;2;5;7;3;4;9;6;1;
5;3;1;9;6;8;7;2;4;
4;8;2;3;7;1;6;9;5;
6;9;7;4;5;2;8;1;3;

