sudoku number 22
solution number 1
9.849682807922363; <- first_found_time
32951; <- nodes_visited_until_first_solution
32124; <- recurrence_number_until_first_solution
11.2399320602417; <- method_time
259644; <- all_nodes_visited
37056; <- all_recurrence
1; <- number_of_results
1;5;7;3;4;9;6;2;8;
2;4;9;6;7;8;3;1;5;
6;8;3;1;2;5;4;7;9;
3;9;5;2;8;6;7;4;1;
8;7;1;9;3;4;2;5;6;
4;2;6;7;5;1;9;8;3;
5;3;4;8;9;7;1;6;2;
9;6;8;4;1;2;5;3;7;
7;1;2;5;6;3;8;9;4;

