sudoku number 14
solution number 1
0.17954111099243164; <- first_found_time
17126; <- nodes_visited_until_first_solution
604; <- recurrence_number_until_first_solution
0.9404749870300293; <- method_time
21781; <- all_nodes_visited
3073; <- all_recurrence
1; <- number_of_results
1;9;5;4;3;7;6;8;2;
8;3;4;6;5;2;9;7;1;
6;2;7;1;9;8;4;3;5;
7;4;1;3;2;6;8;5;9;
9;8;2;5;7;1;3;4;6;
5;6;3;9;8;4;1;2;7;
4;5;9;7;6;3;2;1;8;
2;1;6;8;4;5;7;9;3;
3;7;8;2;1;9;5;6;4;

